<svg xmlns="http://www.w3.org/2000/svg" width="189" height="40" viewBox="0 0 189 40">
    <g fill="none" fill-rule="nonzero">
        <path fill="#E05530" d="M33.402 3.069c0 1.535-1.234 2.779-2.755 2.779-1.522 0-2.756-1.244-2.756-2.78 0-1.534 1.234-2.778 2.756-2.778 1.521 0 2.755 1.244 2.755 2.779"/>
        <path fill="#C03444" d="M19.635 5.919H3.037c-1.52 0-2.753-1.243-2.753-2.777C.284 1.61 1.516.366 3.037.366h16.598c1.52 0 2.753 1.243 2.753 2.776 0 1.534-1.232 2.777-2.753 2.777"/>
        <path fill="#6CB644" d="M8.64 39.24H3.043c-1.52 0-2.753-1.244-2.753-2.777 0-1.534 1.233-2.777 2.753-2.777H8.64c1.52 0 2.753 1.243 2.753 2.777 0 1.533-1.233 2.776-2.753 2.776"/>
        <path fill="#189E90" d="M30.649 28.133H3.043c-1.52 0-2.753-1.243-2.753-2.776 0-1.534 1.233-2.777 2.753-2.777h27.606c1.52 0 2.753 1.243 2.753 2.777 0 1.533-1.233 2.776-2.753 2.776"/>
        <path fill="#582D7A" d="M8.597 17.027H3.06c-1.52 0-2.753-1.243-2.753-2.776 0-1.534 1.232-2.777 2.753-2.777h5.537c1.52 0 2.753 1.243 2.753 2.777 0 1.533-1.232 2.776-2.753 2.776"/>
        <path fill="#F3B538" d="M30.632 17.027H25.11c-1.52 0-2.753-1.243-2.753-2.776 0-1.534 1.233-2.777 2.753-2.777h5.523c1.52 0 2.753 1.243 2.753 2.777 0 1.533-1.232 2.776-2.753 2.776"/>
        <path fill="#3B3B3A" d="M56.827 16.29H44.546V.374h2.814V13.77h9.467v2.52M68.16.375l6.996 15.914h-3.024l-1.315-2.917h-8.415l-1.289 2.917h-2.972L65.137.375h3.024zM63.48 10.8h6.285l-3.024-7.56h-.316L63.48 10.8zM96.878 10.295c-1.105 1.06-2.604 1.67-4.234 1.67h-4.787v4.324H84.99V.375h7.654c1.84 0 3.523.796 4.628 2.122a5.743 5.743 0 0 1 1.315 3.713 5.75 5.75 0 0 1-1.71 4.085zm-1.92-1.91c.42-.61.789-1.459.789-2.175 0-.849-.263-1.618-.79-2.175-.552-.663-1.42-1.06-2.419-1.06h-4.68v6.418h4.89c.869 0 1.71-.424 2.21-1.008zM113.287 9.711a5.286 5.286 0 0 1-2.156 1.671c.946 1.539 2.024 3.342 2.971 4.907h-3.208l-2.551-4.323h-4.84v4.323h-2.84V.375h7.785c1.63 0 3.156.61 4.26 1.698 1.052 1.06 1.71 2.466 1.71 4.137 0 1.326-.395 2.547-1.131 3.501zm-9.783-.318h4.997c.893 0 1.735-.371 2.235-.955.552-.61.841-1.432.841-2.228 0-.822-.289-1.618-.789-2.148-.525-.663-1.446-1.088-2.419-1.088h-4.865v6.419zM116.52.375h2.762V16.29h-2.761zM124.962.375l5.575 7.878 5.444-7.878h3.024V16.29h-2.787V4.62h-.105l-5.181 7.4h-1.026l-5.233-7.4h-.105v11.67h-2.657V.375h3.051M141.634.375h12.256v2.6h-9.415V6.66h8.415v2.573h-8.415v4.483h9.783v2.572h-12.624V.375M169.22 9.711a5.287 5.287 0 0 1-2.156 1.671c.947 1.539 2.025 3.342 2.972 4.907h-3.208l-2.551-4.323h-4.84v4.323h-2.84V.375h7.785c1.63 0 3.156.61 4.26 1.698 1.052 1.06 1.71 2.466 1.71 4.137 0 1.326-.395 2.547-1.131 3.501zm-9.782-.318h4.996c.895 0 1.736-.371 2.236-.955.552-.61.842-1.432.842-2.228 0-.822-.29-1.618-.79-2.148-.526-.663-1.446-1.088-2.42-1.088h-4.864v6.419zM181.817.375l6.995 15.914h-3.024l-1.315-2.917h-8.416l-1.288 2.917h-2.972L178.793.375h3.024zM177.136 10.8h6.285l-3.024-7.56h-.316l-2.945 7.56zM56.406 33.276c-1.104 1.06-2.603 1.67-4.234 1.67h-4.786v4.324h-2.867V23.356h7.653c1.841 0 3.524.795 4.629 2.121a5.743 5.743 0 0 1 1.315 3.714 5.75 5.75 0 0 1-1.71 4.085zm-1.92-1.91c.421-.61.79-1.459.79-2.175 0-.85-.264-1.618-.79-2.175-.552-.663-1.42-1.061-2.419-1.061h-4.681v6.419h4.891a3 3 0 0 0 2.21-1.008zM72.5 39.27H60.22V23.356h2.814V36.75H72.5v2.52M83.834 23.356L90.83 39.27h-3.025l-1.315-2.918h-8.415l-1.289 2.918h-2.972l6.996-15.914h3.024zm-4.681 10.423h6.286l-3.025-7.559h-.316l-2.945 7.56zM107.45 23.356V39.27h-2.604l-9.284-11.432V39.27h-2.761V23.356h2.604l9.335 11.458V23.356h2.71M119.44 23.356l6.996 15.914h-3.024l-1.315-2.918h-8.416l-1.288 2.918h-2.972l6.995-15.914h3.025zm-4.68 10.423h6.285l-3.024-7.559h-.316l-2.945 7.56z"/>
    </g>
</svg>
